30

4 6
19
1 0
0 1
2 4
2 5
3 4
0 5
3 5
0 3
1 0
0 3
3 4
3 0
1 3
1 1
0 2
2 5
3 1
2 0
3 1
1 2

1 10
10
0 6
0 0
0 6
0 3
0 4
0 6
0 9
0 1
0 2
0 7
4 2

5 6
19
2 0
2 0
1 1
4 1
4 2
3 2
3 5
0 0
3 3
4 0
4 2
0 5
0 1
4 5
4 4
0 0
0 1
4 2
3 4
1 2

6 9
9
5 1
4 3
0 1
2 2
3 3
2 0
2 2
3 2
1 6
1 2

10 1
13
9 0
8 0
0 0
6 0
0 0
8 0
0 0
3 0
5 0
4 0
1 0
2 0
3 0
4 2

2 6
10
0 3
1 5
0 3
1 3
0 1
0 0
0 4
1 2
1 3
0 1
2 2

8 8
16
3 6
5 0
1 5
0 2
4 2
2 5
0 6
2 0
7 2
0 3
3 3
5 3
4 3
3 7
7 6
4 4
2 2

7 1
3
4 0
6 0
2 0
3 2

9 9
5
5 8
3 8
6 2
5 0
6 7
3 2

8 5
7
2 2
4 0
5 1
1 2
5 3
0 3
1 0
3 2

10 8
10
0 5
7 4
5 2
1 2
8 7
8 7
2 1
6 6
0 0
4 5
2 2

2 7
5
0 6
1 6
1 2
1 0
1 0
2 2

7 6
19
4 5
3 2
4 5
1 5
4 4
3 2
6 5
6 2
5 0
1 5
0 1
6 2
0 5
1 4
5 1
3 1
3 4
6 4
6 3
1 2

4 9
4
1 8
0 4
1 2
2 5
4 2

9 7
16
5 6
1 5
5 6
4 2
2 6
1 5
4 4
4 6
8 2
3 3
4 4
3 0
2 0
8 6
1 6
1 0
1 2

8 6
4
7 3
0 1
7 0
1 2
1 2

6 4
3
4 0
4 1
5 3
1 2

7 1
5
4 0
4 0
5 0
4 0
0 0
2 2

5 9
2
4 2
1 0
4 2

9 4
3
2 1
7 3
4 0
3 2

5 2
2
3 1
3 0
4 2

1 1
16
0 0
0 0
0 0
0 0
0 0
0 0
0 0
0 0
0 0
0 0
0 0
0 0
0 0
0 0
0 0
0 0
2 2

5 2
7
3 1
4 1
2 1
2 1
1 0
4 0
1 1
4 2

10 9
10
9 6
9 1
3 6
9 4
7 1
2 7
3 7
7 2
8 0
0 0
2 2

6 10
5
4 0
4 4
0 5
4 8
0 2
4 2

6 6
18
2 1
0 1
4 5
3 2
5 5
1 3
2 4
3 0
4 5
2 5
3 0
4 2
1 2
5 0
1 4
5 2
3 3
2 1
3 2

9 8
19
8 0
3 0
5 4
4 3
5 1
7 0
1 1
2 1
7 1
8 2
3 0
2 4
2 4
6 6
5 1
8 6
7 3
6 7
1 2
4 2

8 2
2
5 1
5 0
3 2

2 2
12
0 1
1 1
1 1
1 1
0 1
0 1
0 1
0 0
0 1
0 1
0 1
0 1
3 2

5 9
8
0 0
2 8
1 6
2 4
1 0
1 6
2 4
1 0
4 2
